<mxfile host="app.diagrams.net" modified="2022-10-21T13:48:44.701Z" agent="5.0 (X11; Linux x86_64) AppleWebKit/537.36 (KHTML, like Gecko) Chrome/106.0.0.0 Safari/537.36" etag="bHME6gO3OmGnoXkX532h" version="20.4.1" type="gitlab">
  <diagram id="FhbB2Iv3MtaerO5ePsD5" name="Página-1">
    <mxGraphModel dx="1498" dy="850" grid="1" gridSize="10" guides="1" tooltips="1" connect="1" arrows="1" fold="1" page="1" pageScale="1" pageWidth="827" pageHeight="1169" math="0" shadow="0">
      <root>
        <mxCell id="0" />
        <mxCell id="1" parent="0" />
        <mxCell id="2ub1PpnHgh5BXK-I_KhE-27" value="" style="rounded=0;whiteSpace=wrap;html=1;labelBackgroundColor=default;dashed=1;" parent="1" vertex="1">
          <mxGeometry x="160" y="110" width="410" height="340" as="geometry" />
        </mxCell>
        <mxCell id="2ub1PpnHgh5BXK-I_KhE-5" style="edgeStyle=orthogonalEdgeStyle;rounded=0;orthogonalLoop=1;jettySize=auto;html=1;" parent="1" source="2ub1PpnHgh5BXK-I_KhE-2" target="2ub1PpnHgh5BXK-I_KhE-4" edge="1">
          <mxGeometry relative="1" as="geometry">
            <Array as="points">
              <mxPoint x="260" y="369" />
            </Array>
          </mxGeometry>
        </mxCell>
        <mxCell id="JaT2tNrwTSW0CxahjqF4-1" style="edgeStyle=orthogonalEdgeStyle;rounded=0;orthogonalLoop=1;jettySize=auto;html=1;" edge="1" parent="1" source="2ub1PpnHgh5BXK-I_KhE-3" target="2ub1PpnHgh5BXK-I_KhE-4">
          <mxGeometry relative="1" as="geometry">
            <Array as="points">
              <mxPoint x="469" y="370" />
            </Array>
          </mxGeometry>
        </mxCell>
        <mxCell id="2ub1PpnHgh5BXK-I_KhE-3" value="Query" style="sketch=0;points=[[0,0,0],[0.25,0,0],[0.5,0,0],[0.75,0,0],[1,0,0],[0,1,0],[0.25,1,0],[0.5,1,0],[0.75,1,0],[1,1,0],[0,0.25,0],[0,0.5,0],[0,0.75,0],[1,0.25,0],[1,0.5,0],[1,0.75,0]];outlineConnect=0;fontColor=#232F3E;gradientColor=#945DF2;gradientDirection=north;fillColor=#5A30B5;strokeColor=#ffffff;dashed=0;verticalLabelPosition=bottom;verticalAlign=top;align=center;html=1;fontSize=12;fontStyle=0;aspect=fixed;shape=mxgraph.aws4.resourceIcon;resIcon=mxgraph.aws4.api_gateway;labelBackgroundColor=default;" parent="1" vertex="1">
          <mxGeometry x="430" y="200" width="78" height="78" as="geometry" />
        </mxCell>
        <mxCell id="2ub1PpnHgh5BXK-I_KhE-2" value="Command" style="sketch=0;points=[[0,0,0],[0.25,0,0],[0.5,0,0],[0.75,0,0],[1,0,0],[0,1,0],[0.25,1,0],[0.5,1,0],[0.75,1,0],[1,1,0],[0,0.25,0],[0,0.5,0],[0,0.75,0],[1,0.25,0],[1,0.5,0],[1,0.75,0]];outlineConnect=0;fontColor=#232F3E;gradientColor=#945DF2;gradientDirection=north;fillColor=#5A30B5;strokeColor=#ffffff;dashed=0;verticalLabelPosition=bottom;verticalAlign=top;align=center;html=1;fontSize=12;fontStyle=0;aspect=fixed;shape=mxgraph.aws4.resourceIcon;resIcon=mxgraph.aws4.api_gateway;labelBackgroundColor=default;" parent="1" vertex="1">
          <mxGeometry x="220" y="200" width="78" height="78" as="geometry" />
        </mxCell>
        <mxCell id="2ub1PpnHgh5BXK-I_KhE-9" value="grpc server" style="sketch=0;points=[[0,0,0],[0.25,0,0],[0.5,0,0],[0.75,0,0],[1,0,0],[0,1,0],[0.25,1,0],[0.5,1,0],[0.75,1,0],[1,1,0],[0,0.25,0],[0,0.5,0],[0,0.75,0],[1,0.25,0],[1,0.5,0],[1,0.75,0]];outlineConnect=0;fontColor=#232F3E;gradientColor=#FF4F8B;gradientDirection=north;fillColor=#BC1356;strokeColor=#ffffff;dashed=0;verticalLabelPosition=bottom;verticalAlign=top;align=center;html=1;fontSize=12;fontStyle=0;shape=mxgraph.aws4.resourceIcon;resIcon=mxgraph.aws4.eventbridge;labelBackgroundColor=default;spacingTop=-60;" parent="1" vertex="1">
          <mxGeometry x="430" y="170" width="78" height="30" as="geometry" />
        </mxCell>
        <mxCell id="2ub1PpnHgh5BXK-I_KhE-11" value="grpc server" style="sketch=0;points=[[0,0,0],[0.25,0,0],[0.5,0,0],[0.75,0,0],[1,0,0],[0,1,0],[0.25,1,0],[0.5,1,0],[0.75,1,0],[1,1,0],[0,0.25,0],[0,0.5,0],[0,0.75,0],[1,0.25,0],[1,0.5,0],[1,0.75,0]];outlineConnect=0;fontColor=#232F3E;gradientColor=#FF4F8B;gradientDirection=north;fillColor=#BC1356;strokeColor=#ffffff;dashed=0;verticalLabelPosition=bottom;verticalAlign=top;align=center;html=1;fontSize=12;fontStyle=0;shape=mxgraph.aws4.resourceIcon;resIcon=mxgraph.aws4.eventbridge;labelBackgroundColor=default;spacingBottom=0;spacingTop=-60;" parent="1" vertex="1">
          <mxGeometry x="220" y="170" width="78" height="30" as="geometry" />
        </mxCell>
        <mxCell id="2ub1PpnHgh5BXK-I_KhE-4" value="DB Writing" style="sketch=0;points=[[0,0,0],[0.25,0,0],[0.5,0,0],[0.75,0,0],[1,0,0],[0,1,0],[0.25,1,0],[0.5,1,0],[0.75,1,0],[1,1,0],[0,0.25,0],[0,0.5,0],[0,0.75,0],[1,0.25,0],[1,0.5,0],[1,0.75,0]];outlineConnect=0;fontColor=#232F3E;gradientColor=#4D72F3;gradientDirection=north;fillColor=#3334B9;strokeColor=#ffffff;dashed=0;verticalLabelPosition=bottom;verticalAlign=top;align=center;html=1;fontSize=12;fontStyle=0;aspect=fixed;shape=mxgraph.aws4.resourceIcon;resIcon=mxgraph.aws4.documentdb_with_mongodb_compatibility;labelBackgroundColor=default;" parent="1" vertex="1">
          <mxGeometry x="320" y="330" width="78" height="78" as="geometry" />
        </mxCell>
        <mxCell id="2ub1PpnHgh5BXK-I_KhE-29" value="category_manager" style="text;html=1;align=center;verticalAlign=middle;resizable=0;points=[];autosize=1;strokeColor=none;fillColor=none;" parent="1" vertex="1">
          <mxGeometry x="150" y="75" width="120" height="30" as="geometry" />
        </mxCell>
      </root>
    </mxGraphModel>
  </diagram>
</mxfile>
