<mxfile host="app.diagrams.net" modified="2023-01-25T16:23:13.131Z" agent="5.0 (X11; Linux x86_64) AppleWebKit/537.36 (KHTML, like Gecko) Chrome/109.0.0.0 Safari/537.36" etag="rcoptwYyIvx5IS0DaPZQ" version="20.8.10" type="gitlab">
  <diagram name="Page-1" id="npbIsMK4QJ1BFlbBKJjB">
    <mxGraphModel dx="683" dy="364" grid="1" gridSize="10" guides="1" tooltips="1" connect="1" arrows="1" fold="1" page="1" pageScale="1" pageWidth="850" pageHeight="1100" math="0" shadow="0">
      <root>
        <mxCell id="0" />
        <mxCell id="1" parent="0" />
        <mxCell id="MIGc59yy6IIMe4rX5YY--3" style="edgeStyle=orthogonalEdgeStyle;rounded=0;orthogonalLoop=1;jettySize=auto;html=1;" edge="1" parent="1" source="MIGc59yy6IIMe4rX5YY--1" target="MIGc59yy6IIMe4rX5YY--2">
          <mxGeometry relative="1" as="geometry">
            <Array as="points">
              <mxPoint x="380" y="510" />
              <mxPoint x="380" y="510" />
            </Array>
          </mxGeometry>
        </mxCell>
        <mxCell id="MIGc59yy6IIMe4rX5YY--15" value="remover" style="edgeLabel;html=1;align=center;verticalAlign=middle;resizable=0;points=[];" vertex="1" connectable="0" parent="MIGc59yy6IIMe4rX5YY--3">
          <mxGeometry x="-0.3238" y="-1" relative="1" as="geometry">
            <mxPoint as="offset" />
          </mxGeometry>
        </mxCell>
        <mxCell id="MIGc59yy6IIMe4rX5YY--5" style="edgeStyle=orthogonalEdgeStyle;rounded=0;orthogonalLoop=1;jettySize=auto;html=1;" edge="1" parent="1" source="MIGc59yy6IIMe4rX5YY--1" target="MIGc59yy6IIMe4rX5YY--4">
          <mxGeometry relative="1" as="geometry" />
        </mxCell>
        <mxCell id="MIGc59yy6IIMe4rX5YY--6" value="transferir&amp;nbsp; gblue" style="edgeLabel;html=1;align=center;verticalAlign=middle;resizable=0;points=[];" vertex="1" connectable="0" parent="MIGc59yy6IIMe4rX5YY--5">
          <mxGeometry x="0.3185" y="-2" relative="1" as="geometry">
            <mxPoint x="-38" y="-12" as="offset" />
          </mxGeometry>
        </mxCell>
        <mxCell id="MIGc59yy6IIMe4rX5YY--1" value="smith" style="whiteSpace=wrap;html=1;aspect=fixed;" vertex="1" parent="1">
          <mxGeometry x="340" y="390" width="80" height="80" as="geometry" />
        </mxCell>
        <mxCell id="MIGc59yy6IIMe4rX5YY--2" value="wallet" style="whiteSpace=wrap;html=1;aspect=fixed;" vertex="1" parent="1">
          <mxGeometry x="340" y="540" width="80" height="80" as="geometry" />
        </mxCell>
        <mxCell id="MIGc59yy6IIMe4rX5YY--8" style="edgeStyle=orthogonalEdgeStyle;rounded=0;orthogonalLoop=1;jettySize=auto;html=1;" edge="1" parent="1" source="MIGc59yy6IIMe4rX5YY--4" target="MIGc59yy6IIMe4rX5YY--7">
          <mxGeometry relative="1" as="geometry" />
        </mxCell>
        <mxCell id="MIGc59yy6IIMe4rX5YY--14" value="atualizar" style="edgeLabel;html=1;align=center;verticalAlign=middle;resizable=0;points=[];" vertex="1" connectable="0" parent="MIGc59yy6IIMe4rX5YY--8">
          <mxGeometry x="-0.2111" relative="1" as="geometry">
            <mxPoint as="offset" />
          </mxGeometry>
        </mxCell>
        <mxCell id="MIGc59yy6IIMe4rX5YY--12" style="edgeStyle=orthogonalEdgeStyle;rounded=0;orthogonalLoop=1;jettySize=auto;html=1;" edge="1" parent="1" source="MIGc59yy6IIMe4rX5YY--4" target="MIGc59yy6IIMe4rX5YY--11">
          <mxGeometry relative="1" as="geometry" />
        </mxCell>
        <mxCell id="MIGc59yy6IIMe4rX5YY--13" value="registrar transação" style="edgeLabel;html=1;align=center;verticalAlign=middle;resizable=0;points=[];" vertex="1" connectable="0" parent="MIGc59yy6IIMe4rX5YY--12">
          <mxGeometry x="-0.2133" relative="1" as="geometry">
            <mxPoint x="11" y="-10" as="offset" />
          </mxGeometry>
        </mxCell>
        <mxCell id="MIGc59yy6IIMe4rX5YY--16" style="edgeStyle=orthogonalEdgeStyle;rounded=0;orthogonalLoop=1;jettySize=auto;html=1;dashed=1;" edge="1" parent="1" source="MIGc59yy6IIMe4rX5YY--4">
          <mxGeometry relative="1" as="geometry">
            <mxPoint x="420" y="450" as="targetPoint" />
            <Array as="points">
              <mxPoint x="420" y="450" />
            </Array>
          </mxGeometry>
        </mxCell>
        <mxCell id="MIGc59yy6IIMe4rX5YY--17" value="Rollback caso de erro" style="edgeLabel;html=1;align=center;verticalAlign=middle;resizable=0;points=[];" vertex="1" connectable="0" parent="MIGc59yy6IIMe4rX5YY--16">
          <mxGeometry x="0.1416" relative="1" as="geometry">
            <mxPoint x="24" as="offset" />
          </mxGeometry>
        </mxCell>
        <mxCell id="MIGc59yy6IIMe4rX5YY--4" value="blockchain" style="whiteSpace=wrap;html=1;aspect=fixed;" vertex="1" parent="1">
          <mxGeometry x="690" y="390" width="80" height="80" as="geometry" />
        </mxCell>
        <mxCell id="MIGc59yy6IIMe4rX5YY--7" value="wallet smith" style="whiteSpace=wrap;html=1;aspect=fixed;" vertex="1" parent="1">
          <mxGeometry x="690" y="530" width="80" height="80" as="geometry" />
        </mxCell>
        <mxCell id="MIGc59yy6IIMe4rX5YY--11" value="" style="shape=cylinder3;whiteSpace=wrap;html=1;boundedLbl=1;backgroundOutline=1;size=15;" vertex="1" parent="1">
          <mxGeometry x="890" y="390" width="60" height="80" as="geometry" />
        </mxCell>
      </root>
    </mxGraphModel>
  </diagram>
</mxfile>
